"","Est","Stock","U_M1","Pool","Uinf","Usup"
"1","BC",2909014,27.6644353544399,"TOTAL",NA,NA
"2","BCO/P",1302799294,28.6625904666268,"TOTAL",NA,NA
"3","BCO/S",359581723,35.5392591696448,"TOTAL",NA,NA
"4","BE/P",684646372,32.0504513538266,"TOTAL",NA,NA
"5","BE/S",290690857,31.6061050075543,"TOTAL",NA,NA
"6","BM/P",174183381,32.1592553016624,"TOTAL",NA,NA
"7","BM/S",81283428,56.6801299846054,"TOTAL",NA,NA
"8","EOTL/P",10487877,40.1663234282082,"TOTAL",NA,NA
"9","EOTL/S",9544351,42.8924992952638,"TOTAL",NA,NA
"10","EOTnL/P",2231308,79.5505888816934,"TOTAL",NA,NA
"11","MXL/P",448877714,70.7631213765037,"TOTAL",NA,NA
"12","MXL/S",79853058,47.091856778482,"TOTAL",NA,NA
"13","MXnL/P",669967630,69.020099973621,"TOTAL",NA,NA
"14","MXnL/S",61992244,45.947717663656,"TOTAL",NA,NA
"15","P",1319483366,46.7305442870159,"TOTAL",NA,NA
"16","SC/P",598482511,42.487762297841,"TOTAL",NA,NA
"17","SC/S",353624965,44.7678535358078,"TOTAL",NA,NA
"18","SP/P",1004680008,46.2840834981959,"TOTAL",NA,NA
"19","SP/S",299383564,50.1569293346116,"TOTAL",NA,NA
"20","SSC/P",234138093,23.607200069931,"TOTAL",NA,NA
"21","SSC/S",84462786,32.5153935542119,"TOTAL",NA,NA
"22","VHL/P",128519636,69.9322237390422,"TOTAL",NA,NA
"23","VHL/S",842376,28.0559082965998,"TOTAL",NA,NA
"24","VHnL/P",42094899,40.294349637391,"TOTAL",NA,NA
"25","VHnL/S",0,NA,"TOTAL",NA,NA
"26",NA,8244760455,13.5903633614429,"TOTAL",NA,NA
