"","Pool","Est","Stock","U_M1","Uinf","Usup","indicador"
"26","AGB",NA,1648051712,1.88322757012084,1.90634402034642,1.90592305453869,1
"52","Raices",NA,404543449,1.80863759448343,1.83680098958706,1.8191385058295,1
"78","MOM",NA,14046883,7.22412837510702,0,0,1
"104","MLC",NA,646104162,18.156264470432,0,0,1
"130","Hojarasca",NA,548926084,5.66023462651253,0,0,1
"156","Suelos",NA,4983088165,22.3444782611415,22.2377164101599,21.9318045354048,1
