Estrato,NumCong,ER,U
BC,9,0.05034047,94.14650174
BCO/P,4539,0.034666128,8.225737562
BCO/S,1189,0.021497126,11.46631191
BE/P,3478,0.023917242,5.671397391
BE/S,1522,0.013080615,10.87064968
BM/P,367,0.034324652,20.76133025
BM/S,160,0.017356691,36.17831038
EOTL/P,28,0.313610689,195.5708282
EOTL/S,31,0.00458916,78.81737953
EOTnL/P,4,0,NA
MXL/P,1497,0.000279362,69.0386214
MXL/S,184,0.0002673,143.2992426
MXnL/P,889,4.48E-05,161.0848104
MXnL/S,89,0.000128431,195.9254411
P,2067,0.075252662,42.48247611
SC/P,984,0.029629852,12.57053231
SC/S,629,0.013749026,14.43202158
SP/P,2512,0.053767508,10.11201448
SP/S,482,0.032888299,51.92234727
SSC/P,1175,0.042822468,32.505677
SSC/S,305,0.021090738,26.41696569
VHL/P,263,0.039485735,46.89909593
VHL/S,18,0.007500007,96.33479698
VHnL/P,171,0.002645764,73.91692108
