 cves , cves2_pmn , cves3_pmn , cves4_pmn ,pmn_s5
ACUI,113,58890,84167,97979
AGR_AN,27346178,29252887,30484239,30870259
AGR_PER,1713842,1631045,1676578,1709917
AH,1111023,1258891,1595543,1842319
BC,23774,31863,37223,59509
BCO/P,13999048,13119407,12845715,12874705
BCO/S,2994468,3668980,3904315,3896418
BE/P,11679832,10854616,10653266,10634370
BE/S,4033963,4674592,4893002,4857480
BM/P,1320888,1263298,1300376,1318666
BM/S,492985,560147,541370,534744
EOTL/P,347954,260326,268360,255446
EOTL/S,164086,155044,157275,152507
EOTnL/P,166953,153876,152071,149279
H2O,108398561,108398561,108398561,108398561
MXL/P,18934482,18480049,18408159,18431911
MXL/S,2549570,2471485,2421391,2113898
MXnL/P,35070845,34617914,33996275,33854160
MXnL/S,2477181,2515659,2643566,2814517
OT,946629,947671,970837,985957
P,30391650,31360851,30949217,30922730
PE,28024679,28024679,28024679,28024679
SC/P,11237055,10904367,10825108,10734215
SC/S,7465543,6777216,6767207,6620953
SP/P,8451751,7909395,8136566,8410464
SP/S,2542551,2569490,2115800,1832368
SSC/P,2544802,2887136,2969915,3313732
SSC/S,2138753,1849338,1444006,927411
VHL/P,1146104,1068209,1081824,1091135
VHL/S,8701,45181,76740,77735
VHnL/P,1497231,1450132,1397821,1413148
VHnL/S,321,321,344,344
