"","Estrato","NumSitios","NumCong","yi","ai","yi2","yiai","ai2","AreaHa","ER","Prom_ai","f","SdER","U"
"1","BC",2,2,0.0002903,0.000135,8.427409e-08,2.09016e-08,9.153e-09,59741.1,2.15037037037037,6.75e-05,3.34777899971711e-05,2.00697875022892,182.930271205846
"2","BCO/P",221,221,0.0462293,0.013608,2.867110683e-05,3.1190112e-06,8.90676e-07,12946846.9,3.39721487360376,6.15746606334842e-05,1.70697932637174e-05,0.310377786240201,17.9070351350919
"3","BCO/S",70,70,0.0105295,0.00423,7.00778289e-06,6.983028e-07,2.68758e-07,3912800.7,2.48924349881797,6.04285714285714e-05,1.78899988440505e-05,0.542800327267783,42.7394363769574
"4","BE/P",164,164,0.0242226,0.010197,1.966546626e-05,1.6210107e-06,6.68817e-07,10689829.8,2.37546337157988,6.21768292682927e-05,1.53416848601275e-05,0.39023807699082,32.1986286992633
"5","BE/S",106,106,0.0112876,0.006462,1.098402554e-05,7.371117e-07,4.1796e-07,4884711.4,1.74676570721139,6.09622641509434e-05,2.17003608442456e-05,0.483858086598195,54.2924472250183
"6","BM/P",23,23,0.0082851,0.00135,8.40257335e-06,5.769297e-07,8.91e-08,1319183.2,6.13711111111111,5.8695652173913e-05,1.74350310100978e-05,1.63795746263758,52.3112025942842
"7","BM/S",14,14,0.0047902,0.000909,6.5113569e-06,3.275793e-07,6.0993e-08,534972.3,5.26974697469747,6.49285714285714e-05,2.61695792473741e-05,2.48879787146186,92.5669458417458
"8","EOTL/P",1,1,0,2.7e-05,0,0,7.29e-10,256911.7,0,2.7e-05,3.89238792939364e-06,NA,NA
"9","EOTL/S",2,2,9.97e-05,0.000126,9.94009e-09,7.1784e-09,8.1e-09,152651.1,0.791269841269841,6.3e-05,1.31017726043245e-05,0.67822684948637,167.998899447496
"10","MXL/P",63,63,0.0011926,0.003312,7.7365076e-07,6.8058e-08,1.93428e-07,18519595.4,0.360084541062802,5.25714285714286e-05,3.40180217976036e-06,0.263531296084073,143.444464125078
"11","MXL/S",9,9,0.0001382,0.00045,1.909924e-08,7.4628e-09,2.5434e-08,2129570.2,0.307111111111111,5e-05,4.22620489336299e-06,0.306541781280915,195.636650571467
"12","MXnL/P",12,12,0,0.000666,0,0,4.05e-08,33961115.6,0,5.55e-05,3.53345282921153e-07,0,NA
"13","MXnL/S",2,2,7.88e-05,0.000117,6.20944e-09,3.546e-09,7.209e-09,2830534.7,0.673504273504273,5.85e-05,7.06580279690618e-07,0.828928043768384,241.230684006302
"14","P",99,99,0.0076922,0.005976,5.54656484e-06,5.013423e-07,3.80862e-07,31069662.5,1.28718206157965,6.03636363636364e-05,3.18638800791608e-06,0.37180257357708,56.6146053431449
"15","SC/P",46,46,0.0022453,0.002898,6.0333759e-07,1.417572e-07,1.93752e-07,10799372.6,0.774775707384403,6.3e-05,4.25950670504692e-06,0.246689542836698,62.406642251631
"16","SC/S",39,39,0.0012495,0.002466,2.6541329e-07,6.55128e-08,1.63296e-07,6652584.7,0.50669099756691,6.32307692307692e-05,5.86238308247319e-06,0.201654339453358,78.0046433085461
"17","SP/P",131,131,0.0316489,0.008649,2.188499259e-05,2.1820824e-06,5.85549e-07,8423255,3.65925540524916,6.60229007633588e-05,1.55521826182396e-05,0.43046772103175,23.0570605159707
"18","SP/S",54,54,0.0038874,0.00333,2.17287846e-06,2.726082e-07,2.18052e-07,1837438.7,1.16738738738739,6.16666666666667e-05,2.93887355262518e-05,0.410445818758365,68.912326230182
"19","SSC/P",97,97,0.0155735,0.006498,8.59943873e-06,1.0669806e-06,4.40964e-07,3352144.4,2.39666051092644,6.69896907216495e-05,2.8936700936869e-05,0.379479613787582,31.0340175270026
"20","SSC/S",18,18,0.0027956,0.001107,2.39593822e-06,1.957185e-07,7.3143e-08,931251.4,2.52538392050587,6.15e-05,1.93288300022958e-05,1.27242234598244,98.7551943241174
"21","VHL/P",4,4,0,0.00027,0,0,1.8306e-08,1106932.2,0,6.75e-05,3.61359078722256e-06,0,NA
"22","VHnL/P",2,2,0.0002774,0.000135,7.695076e-08,1.74762e-08,9.153e-09,1431551.4,2.05481481481481,6.75e-05,1.39708570715659e-06,2.19180093806732,209.06652062459
