clave_pmn5,Est.n,Est.Prom,Est.U
BC,8,1.106297046,87.20533068
BCO/P,4362,0.533090224,4.885238777
BCO/S,1118,0.454784363,9.95900249
BE/P,3275,0.508221665,7.183105538
BE/S,1391,0.564211453,9.810433943
BM/P,377,1.124522787,25.3702046
BM/S,144,0.855625706,26.88961997
EOTL/P,18,0.035950894,196
EOTL/S,27,0.658340156,59.87364485
EOTnL/P,2,0,NA
MXL/P,1014,0.57831491,8.156899298
MXL/S,119,0.87266722,23.67809086
MXnL/P,463,0.403978345,14.99621513
MXnL/S,46,0.56049539,46.91346444
P,1186,0.541415854,16.22852153
SC/P,896,0.878516321,9.382546053
SC/S,577,0.66624549,13.53782009
SP/P,2086,2.71115873,7.814150736
SP/S,407,1.554706737,19.24752113
SSC/P,1113,1.675114413,9.880748912
SSC/S,287,1.402358905,19.22902086
VHL/P,177,0.006954866,196
VHL/S,10,0,NA
VHnL/P,40,0.040138316,175.3247134
