clave_pmn5,Est.n,Est.Prom,Est.U
BC,8,0.171876651,87.20533068
BCO/P,4362,0.165812015,4.88984012
BCO/S,1118,0.141658217,9.964808457
BE/P,3275,0.138062357,7.181424581
BE/S,1391,0.153700761,9.814725723
BM/P,377,0.288143418,25.42085415
BM/S,144,0.219683003,26.91391694
EOTL/P,18,0.011195356,196
EOTL/S,27,0.214294981,59.87364485
EOTnL/P,2,0,NA
MXL/P,1014,0.173025754,8.154294466
MXL/S,119,0.261455814,23.67809086
MXnL/P,463,0.121064331,14.99320164
MXnL/S,46,0.168053509,46.87030516
P,1186,0.141825839,17.32015414
SC/P,896,0.26141453,9.400380446
SC/S,577,0.197877215,13.49401047
SP/P,2086,0.561005412,7.778357423
SP/S,407,0.328300812,19.24753399
SSC/P,1113,0.325121614,9.871543583
SSC/S,287,0.272049335,19.21789224
VHL/P,177,0.003759387,196
VHL/S,10,0,NA
VHnL/P,40,0.008467045,170.5251565
